%YAML 1.1
%TAG !u! tag:unity3d.com,2011:
--- !u!74 &7400000
AnimationClip:
  m_ObjectHideFlags: 0
  m_CorrespondingSourceObject: {fileID: 0}
  m_PrefabInstance: {fileID: 0}
  m_PrefabAsset: {fileID: 0}
  m_Name: Walk
  serializedVersion: 6
  m_Legacy: 0
  m_Compressed: 0
  m_UseHighQualityCurve: 1
  m_RotationCurves: []
  m_CompressedRotationCurves: []
  m_EulerCurves: []
  m_PositionCurves: []
  m_ScaleCurves: []
  m_FloatCurves: []
  m_PPtrCurves:
  - curve:
    - time: 0
      value: {fileID: 45966500872709769, guid: b0af80d0f165be443a8425477160df42, type: 3}
    - time: 0.06666667
      value: {fileID: 7013577002690406627, guid: b0af80d0f165be443a8425477160df42, type: 3}
    - time: 0.11666667
      value: {fileID: -2356003859601637949, guid: b0af80d0f165be443a8425477160df42, type: 3}
    - time: 0.2
      value: {fileID: 2369481524001456022, guid: b0af80d0f165be443a8425477160df42, type: 3}
    - time: 0.26666668
      value: {fileID: -1540590527562206909, guid: b0af80d0f165be443a8425477160df42, type: 3}
    - time: 0.31666666
      value: {fileID: -7445728037447846149, guid: b0af80d0f165be443a8425477160df42, type: 3}
    - time: 0.4
      value: {fileID: 4792086390759421477, guid: b0af80d0f165be443a8425477160df42, type: 3}
    - time: 0.46666667
      value: {fileID: -3462787873181832886, guid: b0af80d0f165be443a8425477160df42, type: 3}
    - time: 0.51666665
      value: {fileID: 7746255393700133122, guid: b0af80d0f165be443a8425477160df42, type: 3}
    - time: 0.5833333
      value: {fileID: 4482783208499175354, guid: b0af80d0f165be443a8425477160df42, type: 3}
    - time: 0.6666667
      value: {fileID: 1513826763441915127, guid: b0af80d0f165be443a8425477160df42, type: 3}
    - time: 0.71666664
      value: {fileID: -2146757507701255462, guid: b0af80d0f165be443a8425477160df42, type: 3}
    - time: 0.78333336
      value: {fileID: -4988383733850832283, guid: b0af80d0f165be443a8425477160df42, type: 3}
    attribute: m_Sprite
    path: EnemySprite
    classID: 212
    script: {fileID: 0}
  m_SampleRate: 60
  m_WrapMode: 0
  m_Bounds:
    m_Center: {x: 0, y: 0, z: 0}
    m_Extent: {x: 0, y: 0, z: 0}
  m_ClipBindingConstant:
    genericBindings:
    - serializedVersion: 2
      path: 2754609136
      attribute: 0
      script: {fileID: 0}
      typeID: 212
      customType: 23
      isPPtrCurve: 1
    pptrCurveMapping:
    - {fileID: 45966500872709769, guid: b0af80d0f165be443a8425477160df42, type: 3}
    - {fileID: 7013577002690406627, guid: b0af80d0f165be443a8425477160df42, type: 3}
    - {fileID: -2356003859601637949, guid: b0af80d0f165be443a8425477160df42, type: 3}
    - {fileID: 2369481524001456022, guid: b0af80d0f165be443a8425477160df42, type: 3}
    - {fileID: -1540590527562206909, guid: b0af80d0f165be443a8425477160df42, type: 3}
    - {fileID: -7445728037447846149, guid: b0af80d0f165be443a8425477160df42, type: 3}
    - {fileID: 4792086390759421477, guid: b0af80d0f165be443a8425477160df42, type: 3}
    - {fileID: -3462787873181832886, guid: b0af80d0f165be443a8425477160df42, type: 3}
    - {fileID: 7746255393700133122, guid: b0af80d0f165be443a8425477160df42, type: 3}
    - {fileID: 4482783208499175354, guid: b0af80d0f165be443a8425477160df42, type: 3}
    - {fileID: 1513826763441915127, guid: b0af80d0f165be443a8425477160df42, type: 3}
    - {fileID: -2146757507701255462, guid: b0af80d0f165be443a8425477160df42, type: 3}
    - {fileID: -4988383733850832283, guid: b0af80d0f165be443a8425477160df42, type: 3}
  m_AnimationClipSettings:
    serializedVersion: 2
    m_AdditiveReferencePoseClip: {fileID: 0}
    m_AdditiveReferencePoseTime: 0
    m_StartTime: 0
    m_StopTime: 0.8
    m_OrientationOffsetY: 0
    m_Level: 0
    m_CycleOffset: 0
    m_HasAdditiveReferencePose: 0
    m_LoopTime: 1
    m_LoopBlend: 0
    m_LoopBlendOrientation: 0
    m_LoopBlendPositionY: 0
    m_LoopBlendPositionXZ: 0
    m_KeepOriginalOrientation: 0
    m_KeepOriginalPositionY: 1
    m_KeepOriginalPositionXZ: 0
    m_HeightFromFeet: 0
    m_Mirror: 0
  m_EditorCurves: []
  m_EulerEditorCurves: []
  m_HasGenericRootTransform: 0
  m_HasMotionFloatCurves: 0
  m_Events: []
