%YAML 1.1
%TAG !u! tag:unity3d.com,2011:
--- !u!74 &7400000
AnimationClip:
  m_ObjectHideFlags: 0
  m_CorrespondingSourceObject: {fileID: 0}
  m_PrefabInstance: {fileID: 0}
  m_PrefabAsset: {fileID: 0}
  m_Name: Move
  serializedVersion: 6
  m_Legacy: 0
  m_Compressed: 0
  m_UseHighQualityCurve: 1
  m_RotationCurves: []
  m_CompressedRotationCurves: []
  m_EulerCurves: []
  m_PositionCurves: []
  m_ScaleCurves: []
  m_FloatCurves: []
  m_PPtrCurves:
  - curve:
    - time: 0
      value: {fileID: 3306843220094131850, guid: 591d60fc9ac7e7a4cb4d6df7c8a7cac7, type: 3}
    - time: 0.033333335
      value: {fileID: 1072473234393242241, guid: 591d60fc9ac7e7a4cb4d6df7c8a7cac7, type: 3}
    - time: 0.083333336
      value: {fileID: -5112011027009615351, guid: 591d60fc9ac7e7a4cb4d6df7c8a7cac7, type: 3}
    - time: 0.15
      value: {fileID: -4804046502934563578, guid: 591d60fc9ac7e7a4cb4d6df7c8a7cac7, type: 3}
    - time: 0.2
      value: {fileID: 469277350978276920, guid: 591d60fc9ac7e7a4cb4d6df7c8a7cac7, type: 3}
    - time: 0.26666668
      value: {fileID: 5961051703751312415, guid: 591d60fc9ac7e7a4cb4d6df7c8a7cac7, type: 3}
    - time: 0.33333334
      value: {fileID: 3432117944757310712, guid: 591d60fc9ac7e7a4cb4d6df7c8a7cac7, type: 3}
    - time: 0.4
      value: {fileID: -2554234333682780899, guid: 591d60fc9ac7e7a4cb4d6df7c8a7cac7, type: 3}
    - time: 0.48333332
      value: {fileID: -5445389802512603419, guid: 591d60fc9ac7e7a4cb4d6df7c8a7cac7, type: 3}
    - time: 0.53333336
      value: {fileID: -7655037926293699598, guid: 591d60fc9ac7e7a4cb4d6df7c8a7cac7, type: 3}
    - time: 0.6
      value: {fileID: -7142354583854332529, guid: 591d60fc9ac7e7a4cb4d6df7c8a7cac7, type: 3}
    - time: 0.6666667
      value: {fileID: -5445389802512603419, guid: 591d60fc9ac7e7a4cb4d6df7c8a7cac7, type: 3}
    - time: 0.73333335
      value: {fileID: 5961051703751312415, guid: 591d60fc9ac7e7a4cb4d6df7c8a7cac7, type: 3}
    - time: 0.78333336
      value: {fileID: -4804046502934563578, guid: 591d60fc9ac7e7a4cb4d6df7c8a7cac7, type: 3}
    - time: 0.85
      value: {fileID: 1072473234393242241, guid: 591d60fc9ac7e7a4cb4d6df7c8a7cac7, type: 3}
    - time: 0.9166667
      value: {fileID: 3306843220094131850, guid: 591d60fc9ac7e7a4cb4d6df7c8a7cac7, type: 3}
    attribute: m_Sprite
    path: EnemySprite
    classID: 212
    script: {fileID: 0}
  m_SampleRate: 60
  m_WrapMode: 0
  m_Bounds:
    m_Center: {x: 0, y: 0, z: 0}
    m_Extent: {x: 0, y: 0, z: 0}
  m_ClipBindingConstant:
    genericBindings:
    - serializedVersion: 2
      path: 2754609136
      attribute: 0
      script: {fileID: 0}
      typeID: 212
      customType: 23
      isPPtrCurve: 1
    pptrCurveMapping:
    - {fileID: 3306843220094131850, guid: 591d60fc9ac7e7a4cb4d6df7c8a7cac7, type: 3}
    - {fileID: 1072473234393242241, guid: 591d60fc9ac7e7a4cb4d6df7c8a7cac7, type: 3}
    - {fileID: -5112011027009615351, guid: 591d60fc9ac7e7a4cb4d6df7c8a7cac7, type: 3}
    - {fileID: -4804046502934563578, guid: 591d60fc9ac7e7a4cb4d6df7c8a7cac7, type: 3}
    - {fileID: 469277350978276920, guid: 591d60fc9ac7e7a4cb4d6df7c8a7cac7, type: 3}
    - {fileID: 5961051703751312415, guid: 591d60fc9ac7e7a4cb4d6df7c8a7cac7, type: 3}
    - {fileID: 3432117944757310712, guid: 591d60fc9ac7e7a4cb4d6df7c8a7cac7, type: 3}
    - {fileID: -2554234333682780899, guid: 591d60fc9ac7e7a4cb4d6df7c8a7cac7, type: 3}
    - {fileID: -5445389802512603419, guid: 591d60fc9ac7e7a4cb4d6df7c8a7cac7, type: 3}
    - {fileID: -7655037926293699598, guid: 591d60fc9ac7e7a4cb4d6df7c8a7cac7, type: 3}
    - {fileID: -7142354583854332529, guid: 591d60fc9ac7e7a4cb4d6df7c8a7cac7, type: 3}
    - {fileID: -5445389802512603419, guid: 591d60fc9ac7e7a4cb4d6df7c8a7cac7, type: 3}
    - {fileID: 5961051703751312415, guid: 591d60fc9ac7e7a4cb4d6df7c8a7cac7, type: 3}
    - {fileID: -4804046502934563578, guid: 591d60fc9ac7e7a4cb4d6df7c8a7cac7, type: 3}
    - {fileID: 1072473234393242241, guid: 591d60fc9ac7e7a4cb4d6df7c8a7cac7, type: 3}
    - {fileID: 3306843220094131850, guid: 591d60fc9ac7e7a4cb4d6df7c8a7cac7, type: 3}
  m_AnimationClipSettings:
    serializedVersion: 2
    m_AdditiveReferencePoseClip: {fileID: 0}
    m_AdditiveReferencePoseTime: 0
    m_StartTime: 0
    m_StopTime: 0.93333334
    m_OrientationOffsetY: 0
    m_Level: 0
    m_CycleOffset: 0
    m_HasAdditiveReferencePose: 0
    m_LoopTime: 1
    m_LoopBlend: 0
    m_LoopBlendOrientation: 0
    m_LoopBlendPositionY: 0
    m_LoopBlendPositionXZ: 0
    m_KeepOriginalOrientation: 0
    m_KeepOriginalPositionY: 1
    m_KeepOriginalPositionXZ: 0
    m_HeightFromFeet: 0
    m_Mirror: 0
  m_EditorCurves: []
  m_EulerEditorCurves: []
  m_HasGenericRootTransform: 0
  m_HasMotionFloatCurves: 0
  m_Events: []
