%YAML 1.1
%TAG !u! tag:unity3d.com,2011:
--- !u!74 &7400000
AnimationClip:
  m_ObjectHideFlags: 0
  m_CorrespondingSourceObject: {fileID: 0}
  m_PrefabInstance: {fileID: 0}
  m_PrefabAsset: {fileID: 0}
  m_Name: Run
  serializedVersion: 6
  m_Legacy: 0
  m_Compressed: 0
  m_UseHighQualityCurve: 1
  m_RotationCurves: []
  m_CompressedRotationCurves: []
  m_EulerCurves: []
  m_PositionCurves: []
  m_ScaleCurves: []
  m_FloatCurves: []
  m_PPtrCurves:
  - curve:
    - time: 0
      value: {fileID: 21300000, guid: acd3817c89590544198adc8775578647, type: 3}
    - time: 0.11666667
      value: {fileID: 21300000, guid: f2e976102414fd44482aabd8f92eea75, type: 3}
    - time: 0.26666668
      value: {fileID: 21300000, guid: a38fc5dfdf61c6041bcbd890a94ba37e, type: 3}
    - time: 0.38333333
      value: {fileID: 21300000, guid: aeaba8843ad4ef447abcf01c368ba008, type: 3}
    - time: 0.53333336
      value: {fileID: 21300000, guid: 67f5e912369699548804b7d4f1c3ca59, type: 3}
    - time: 0.6666667
      value: {fileID: 21300000, guid: 57eb62b43e2d744459eb2ff7470e1dca, type: 3}
    attribute: m_Sprite
    path: EnemySprite
    classID: 212
    script: {fileID: 0}
  m_SampleRate: 60
  m_WrapMode: 0
  m_Bounds:
    m_Center: {x: 0, y: 0, z: 0}
    m_Extent: {x: 0, y: 0, z: 0}
  m_ClipBindingConstant:
    genericBindings:
    - serializedVersion: 2
      path: 2754609136
      attribute: 0
      script: {fileID: 0}
      typeID: 212
      customType: 23
      isPPtrCurve: 1
    pptrCurveMapping:
    - {fileID: 21300000, guid: acd3817c89590544198adc8775578647, type: 3}
    - {fileID: 21300000, guid: f2e976102414fd44482aabd8f92eea75, type: 3}
    - {fileID: 21300000, guid: a38fc5dfdf61c6041bcbd890a94ba37e, type: 3}
    - {fileID: 21300000, guid: aeaba8843ad4ef447abcf01c368ba008, type: 3}
    - {fileID: 21300000, guid: 67f5e912369699548804b7d4f1c3ca59, type: 3}
    - {fileID: 21300000, guid: 57eb62b43e2d744459eb2ff7470e1dca, type: 3}
  m_AnimationClipSettings:
    serializedVersion: 2
    m_AdditiveReferencePoseClip: {fileID: 0}
    m_AdditiveReferencePoseTime: 0
    m_StartTime: 0
    m_StopTime: 0.68333334
    m_OrientationOffsetY: 0
    m_Level: 0
    m_CycleOffset: 0
    m_HasAdditiveReferencePose: 0
    m_LoopTime: 1
    m_LoopBlend: 0
    m_LoopBlendOrientation: 0
    m_LoopBlendPositionY: 0
    m_LoopBlendPositionXZ: 0
    m_KeepOriginalOrientation: 0
    m_KeepOriginalPositionY: 1
    m_KeepOriginalPositionXZ: 0
    m_HeightFromFeet: 0
    m_Mirror: 0
  m_EditorCurves: []
  m_EulerEditorCurves: []
  m_HasGenericRootTransform: 0
  m_HasMotionFloatCurves: 0
  m_Events: []
