%YAML 1.1
%TAG !u! tag:unity3d.com,2011:
--- !u!114 &11400000
MonoBehaviour:
  m_ObjectHideFlags: 0
  m_CorrespondingSourceObject: {fileID: 0}
  m_PrefabInstance: {fileID: 0}
  m_PrefabAsset: {fileID: 0}
  m_GameObject: {fileID: 0}
  m_Enabled: 1
  m_EditorHideFlags: 0
  m_Script: {fileID: 11500000, guid: e9168d020a5d14f4a822b8fd4419a027, type: 3}
  m_Name: Damage
  m_EditorClassIdentifier: 
  upgradeName: Firepower
  upgradeDescription: Increase your shot damage
  upgradeSprite: {fileID: 21300000, guid: 1334ea28d08b4fb48be328f5862e6dc0, type: 3}
  upgradeID: 0
  cost: 1e00000064000000aa00000000000000
